{
  "produits": [
    {
      "id": 1,
      "titre": "Airbus A380",
      "desc": "Tres Gros avion",
      "spec": [
        {
          "titre": "vitesse max",
          "val": "1000km/h",
          "$$hashKey": "object:17"
        },
        {
          "titre": "capacité",
          "val": "407",
          "$$hashKey": "object:18"
        }
      ],
      "ristourne": [
        "Employé : 10%",
        "Employé : 10%",
        "Familles : 10%"
      ],
      "photo": "img/A380.jpg",
      "prix": 380.54321,
      "stock": 1
    },
    {
      "id": 2,
      "titre": "Airbus A350",
      "desc": "Gros avion",
      "spec": [
        {
          "titre": "vitesse max",
          "val": "900km/h"
        },
        {
          "titre": "capacité",
          "val": "325"
        }
      ],
      "ristourne": [
        "Employé : 10%",
        "Employé : 10%",
        "Familles : 10%"
      ],
      "photo": "img/A380.jpg",
      "prix": 350.12345,
      "stock": 0
    },
    {
      "id": 3,
      "titre": "Airbus A320",
      "desc": "Moyen avion",
      "spec": [
        {
          "titre": "vitesse max",
          "val": "800km/h"
        },
        {
          "titre": "capacité",
          "val": "180"
        }
      ],
      "ristourne": [
        "Employé : 10%",
        "Employé : 10%",
        "Familles : 10%"
      ],
      "photo": "img/A380.jpg",
      "prix": 320.56789,
      "stock": 20
    },
    {
      "titre": "AAA",
      "desc": "bbb",
      "prix": "10",
      "id": 4
    }
  ]
}